wlan1
__________
wlan0
          Cell 01 - Address: A8:BD:27:41:BB:E2
                    Quality=42/70  Signal level=-68 dBm  
                    ESSID:"@BayernWLAN"
          Cell 02 - Address: A8:BD:27:41:BB:E1
                    Quality=44/70  Signal level=-66 dBm  
                    ESSID:"campus"
          Cell 03 - Address: A8:BD:27:41:BB:E3
                    Quality=41/70  Signal level=-69 dBm  
                    ESSID:"public"
          Cell 04 - Address: A8:BD:27:41:BB:E0
                    Quality=44/70  Signal level=-66 dBm  
                    ESSID:"eduroam"
          Cell 05 - Address: A8:BD:27:44:A4:40
                    Quality=50/70  Signal level=-60 dBm  
                    ESSID:"eduroam"
          Cell 06 - Address: A8:BD:27:44:A4:41
                    Quality=49/70  Signal level=-61 dBm  
                    ESSID:"campus"
          Cell 07 - Address: A8:BD:27:44:A4:42
                    Quality=50/70  Signal level=-60 dBm  
                    ESSID:"@BayernWLAN"
          Cell 08 - Address: A8:BD:27:44:A4:43
                    Quality=49/70  Signal level=-61 dBm  
                    ESSID:"public"
          Cell 09 - Address: 74:DF:BF:FB:0A:A5
                    Quality=63/70  Signal level=-47 dBm  
                    ESSID:"Mdot"
          Cell 10 - Address: A8:BD:27:41:F0:60
                    Quality=33/70  Signal level=-77 dBm  
                    ESSID:"eduroam"
          Cell 11 - Address: A8:BD:27:41:F0:61
                    Quality=33/70  Signal level=-77 dBm  
                    ESSID:"campus"
          Cell 12 - Address: A8:BD:27:41:F0:63
                    Quality=31/70  Signal level=-79 dBm  
                    ESSID:"public"
          Cell 13 - Address: A8:BD:27:41:F0:62
                    Quality=34/70  Signal level=-76 dBm  
                    ESSID:"@BayernWLAN"
          Cell 14 - Address: A8:BD:27:41:BB:81
                    Quality=28/70  Signal level=-82 dBm  
                    ESSID:"campus"
          Cell 15 - Address: A8:BD:27:41:BB:82
                    Quality=27/70  Signal level=-83 dBm  
                    ESSID:"@BayernWLAN"
          Cell 16 - Address: A8:BD:27:41:BB:80
                    Quality=26/70  Signal level=-84 dBm  
                    ESSID:"eduroam"
          Cell 17 - Address: A8:BD:27:41:BB:83
                    Quality=29/70  Signal level=-81 dBm  
                    ESSID:"public"
          Cell 18 - Address: A8:BD:27:44:83:E0
                    Quality=23/70  Signal level=-87 dBm  
                    ESSID:"eduroam"
          Cell 19 - Address: A8:BD:27:44:83:E1
                    Quality=24/70  Signal level=-86 dBm  
                    ESSID:"campus"
