ESSID;Loc;LocNr;MAC;Nr;Quality(%);Strength(dbm)
\x00\x00\x00\x00\x00\x00\x00\x00\x00;W008;101;00:1F:3F:15:D4:E4;110;31;-88
eduroam;W008;101;20:A6:CD:3E:FC:40;106;34;-86
campus;W008;101;20:A6:CD:3E:FC:41;107;35;-85
@BayernWLAN;W008;101;20:A6:CD:3E:FC:42;109;35;-85
public;W008;101;20:A6:CD:3E:FC:43;108;34;-86
eduroam;W008;101;20:A6:CD:3F:01:A0;102;62;-66
campus;W008;101;20:A6:CD:3F:01:A1;103;62;-66
@BayernWLAN;W008;101;20:A6:CD:3F:01:A2;105;61;-67
public;W008;101;20:A6:CD:3F:01:A3;104;64;-65
TT03195-34;W008;101;34:C9:F0:83:4F:5F;111;31;-88
Kein Internet;W008;101;6E:C7:EC:FF:D0:ED;101;100;-29
;W008;101;00:1F:3F:15:D4:E4;110;20;-47
eduroam;W008;101;20:A6:CD:3E:FC:40;106;18;-42
campus;W008;101;20:A6:CD:3E:FC:41;107;33;-43
@BayernWLAN;W008;101;20:A6:CD:3E:FC:42;109;30;-42
public;W008;101;20:A6:CD:3E:FC:43;108;88;-44
eduroam;W008;101;20:A6:CD:3F:01:A0;102;84;-67
campus;W008;101;20:A6:CD:3F:01:A1;103;100;-68
@BayernWLAN;W008;101;20:A6:CD:3F:01:A2;105;90;-68
public;W008;101;20:A6:CD:3F:01:A3;104;98;-67
Kein Internet;W008;101;6E:C7:EC:FF:D0:ED;101;100;-100
eduroam;W006;102;20:A6:CD:3E:FC:40;102;31;-88
campus;W006;102;20:A6:CD:3E:FC:41;103;31;-88
@BayernWLAN;W006;102;20:A6:CD:3E:FC:42;104;31;-88
public;W006;102;20:A6:CD:3E:FC:43;105;32;-87
eduroam;W006;102;20:A6:CD:3F:01:A0;106;58;-69
campus;W006;102;20:A6:CD:3F:01:A1;107;58;-69
@BayernWLAN;W006;102;20:A6:CD:3F:01:A2;108;58;-69
public;W006;102;20:A6:CD:3F:01:A3;109;57;-70
Kein Internet;W006;102;6E:C7:EC:FF:D0:ED;111;100;-36
;W006;102;00:1F:3F:15:D4:E4;101;0;-43
eduroam;W006;102;20:A6:CD:3E:FC:40;102;95;-42
campus;W006;102;20:A6:CD:3E:FC:41;103;100;-43
@BayernWLAN;W006;102;20:A6:CD:3E:FC:42;104;100;-43
public;W006;102;20:A6:CD:3E:FC:43;105;100;-43
eduroam;W006;102;20:A6:CD:3F:01:A0;106;48;-72
campus;W006;102;20:A6:CD:3F:01:A1;107;48;-72
@BayernWLAN;W006;102;20:A6:CD:3F:01:A2;108;48;-72
public;W006;102;20:A6:CD:3F:01:A3;109;20;-72
Kein Internet;W006;102;6E:C7:EC:FF:D0:ED;111;100;-100
eduroam;W006;102;20:A6:CD:3E:FC:40;102;31;-88
campus;W006;102;20:A6:CD:3E:FC:41;103;31;-88
@BayernWLAN;W006;102;20:A6:CD:3E:FC:42;104;31;-88
public;W006;102;20:A6:CD:3E:FC:43;105;32;-87
eduroam;W006;102;20:A6:CD:3F:01:A0;106;67;-63
campus;W006;102;20:A6:CD:3F:01:A1;107;65;-64
@BayernWLAN;W006;102;20:A6:CD:3F:01:A2;108;65;-64
public;W006;102;20:A6:CD:3F:01:A3;109;67;-63
Kein Internet;W006;102;6E:C7:EC:FF:D0:ED;111;100;-36
;W006;102;00:1F:3F:15:D4:E4;101;0;-43
eduroam;W006;102;20:A6:CD:3E:FC:40;102;96;-42
campus;W006;102;20:A6:CD:3E:FC:41;103;100;-43
@BayernWLAN;W006;102;20:A6:CD:3E:FC:42;104;100;-43
public;W006;102;20:A6:CD:3E:FC:43;105;100;-43
eduroam;W006;102;20:A6:CD:3F:01:A0;106;66;-71
campus;W006;102;20:A6:CD:3F:01:A1;107;48;-72
@BayernWLAN;W006;102;20:A6:CD:3F:01:A2;108;66;-70
public;W006;102;20:A6:CD:3F:01:A3;109;58;-70
TT03195-34;W006;102;34:C9:F0:83:4F:5F;110;88;-26
Kein Internet;W006;102;6E:C7:EC:FF:D0:ED;111;100;-100
eduroam;W006;102;20:A6:CD:3E:FC:40;102;40;-82
campus;W006;102;20:A6:CD:3E:FC:41;103;37;-84
@BayernWLAN;W006;102;20:A6:CD:3E:FC:42;104;41;-81
public;W006;102;20:A6:CD:3E:FC:43;105;42;-80
eduroam;W006;102;20:A6:CD:3F:01:A0;106;65;-64
campus;W006;102;20:A6:CD:3F:01:A1;107;65;-64
@BayernWLAN;W006;102;20:A6:CD:3F:01:A2;108;64;-65
public;W006;102;20:A6:CD:3F:01:A3;109;65;-64
TT03195-34;W006;102;34:C9:F0:83:4F:5F;110;40;-82
Kein Internet;W006;102;6E:C7:EC:FF:D0:ED;111;97;-42
;W006;102;00:1F:3F:15:D4:E4;101;20;-47
eduroam;W006;102;20:A6:CD:3E:FC:40;102;19;-43
campus;W006;102;20:A6:CD:3E:FC:41;103;20;-43
@BayernWLAN;W006;102;20:A6:CD:3E:FC:42;104;0;-43
public;W006;102;20:A6:CD:3E:FC:43;105;0;-47
eduroam;W006;102;20:A6:CD:3F:01:A0;106;17;-70
campus;W006;102;20:A6:CD:3F:01:A1;107;48;-71
@BayernWLAN;W006;102;20:A6:CD:3F:01:A2;108;32;-62
public;W006;102;20:A6:CD:3F:01:A3;109;45;-71
TT03195-34;W006;102;34:C9:F0:83:4F:5F;110;20;-42
Kein Internet;W006;102;6E:C7:EC:FF:D0:ED;111;100;-100
\x00\x00\x00\x00\x00\x00\x00\x00\x00;W006;102;00:1F:3F:15:D4:E4;101;32;-87
eduroam;W006;102;20:A6:CD:3E:FC:40;102;41;-81
campus;W006;102;20:A6:CD:3E:FC:41;103;34;-86
@BayernWLAN;W006;102;20:A6:CD:3E:FC:42;104;35;-85
public;W006;102;20:A6:CD:3E:FC:43;105;38;-83
eduroam;W006;102;20:A6:CD:3F:01:A0;106;50;-75
campus;W006;102;20:A6:CD:3F:01:A1;107;48;-76
@BayernWLAN;W006;102;20:A6:CD:3F:01:A2;108;51;-74
public;W006;102;20:A6:CD:3F:01:A3;109;50;-75
TT03195-34;W006;102;34:C9:F0:83:4F:5F;110;24;-93
Kein Internet;W006;102;6E:C7:EC:FF:D0:ED;111;90;-47
;W006;102;00:15:0C:03:A8:31;112;9;-10
;W006;102;00:1F:3F:15:D4:E4;101;100;-44
eduroam;W006;102;20:A6:CD:3E:FC:40;102;100;-47
campus;W006;102;20:A6:CD:3E:FC:41;103;20;-9
@BayernWLAN;W006;102;20:A6:CD:3E:FC:42;104;48;-47
public;W006;102;20:A6:CD:3E:FC:43;105;48;-47
eduroam;W006;102;20:A6:CD:3F:01:A0;106;0;-60
campus;W006;102;20:A6:CD:3F:01:A1;107;0;-60
@BayernWLAN;W006;102;20:A6:CD:3F:01:A2;108;20;-60
public;W006;102;20:A6:CD:3F:01:A3;109;100;-68
TT03195-34;W006;102;34:C9:F0:83:4F:5F;110;61;-23
Kein Internet;W006;102;6E:C7:EC:FF:D0:ED;111;100;-92
\x00\x00\x00\x00\x00\x00\x00\x00\x00;W006;102;00:1F:3F:15:D4:E4;101;32;-87
eduroam;W006;102;20:A6:CD:3E:FC:40;102;35;-85
campus;W006;102;20:A6:CD:3E:FC:41;103;42;-80
@BayernWLAN;W006;102;20:A6:CD:3E:FC:42;104;35;-85
public;W006;102;20:A6:CD:3E:FC:43;105;35;-85
eduroam;W006;102;20:A6:CD:3F:01:A0;106;57;-70
campus;W006;102;20:A6:CD:3F:01:A1;107;54;-72
@BayernWLAN;W006;102;20:A6:CD:3F:01:A2;108;57;-70
public;W006;102;20:A6:CD:3F:01:A3;109;57;-70
TT03195-34;W006;102;34:C9:F0:83:4F:5F;110;24;-93
Kein Internet;W006;102;6E:C7:EC:FF:D0:ED;111;81;-53
;W006;102;00:15:0C:03:A8:31;112;27;-16
;W006;102;00:1F:3F:15:D4:E4;101;100;-44
eduroam;W006;102;20:A6:CD:3E:FC:40;102;100;-47
campus;W006;102;20:A6:CD:3E:FC:41;103;20;-9
@BayernWLAN;W006;102;20:A6:CD:3E:FC:42;104;58;-47
public;W006;102;20:A6:CD:3E:FC:43;105;48;-47
eduroam;W006;102;20:A6:CD:3F:01:A0;106;20;-60
campus;W006;102;20:A6:CD:3F:01:A1;107;20;-60
@BayernWLAN;W006;102;20:A6:CD:3F:01:A2;108;18;-62
public;W006;102;20:A6:CD:3F:01:A3;109;98;-67
TT03195-34;W006;102;34:C9:F0:83:4F:5F;110;68;-26
Kein Internet;W006;102;6E:C7:EC:FF:D0:ED;111;100;-100
eduroam;W006;102;20:A6:CD:3E:FC:40;102;38;-83
campus;W006;102;20:A6:CD:3E:FC:41;103;38;-83
@BayernWLAN;W006;102;20:A6:CD:3E:FC:42;104;41;-81
public;W006;102;20:A6:CD:3E:FC:43;105;41;-81
eduroam;W006;102;20:A6:CD:3F:01:A0;106;65;-64
campus;W006;102;20:A6:CD:3F:01:A1;107;65;-64
@BayernWLAN;W006;102;20:A6:CD:3F:01:A2;108;70;-61
public;W006;102;20:A6:CD:3F:01:A3;109;68;-62
Kein Internet;W006;102;6E:C7:EC:FF:D0:ED;111;82;-52
;W006;102;00:15:0C:03:A8:31;112;100;-23
;W006;102;00:1F:3F:15:D4:E4;101;0;-47
eduroam;W006;102;20:A6:CD:3E:FC:40;102;36;-44
campus;W006;102;20:A6:CD:3E:FC:41;103;20;-44
@BayernWLAN;W006;102;20:A6:CD:3E:FC:42;104;48;-44
public;W006;102;20:A6:CD:3E:FC:43;105;48;-46
eduroam;W006;102;20:A6:CD:3F:01:A0;106;36;-70
campus;W006;102;20:A6:CD:3F:01:A1;107;36;-70
@BayernWLAN;W006;102;20:A6:CD:3F:01:A2;108;36;-70
public;W006;102;20:A6:CD:3F:01:A3;109;36;-70
Kein Internet;W006;102;6E:C7:EC:FF:D0:ED;111;100;-100
eduroam;W006;102;20:A6:CD:3E:FC:40;102;32;-87
campus;W006;102;20:A6:CD:3E:FC:41;103;38;-83
@BayernWLAN;W006;102;20:A6:CD:3E:FC:42;104;41;-81
public;W006;102;20:A6:CD:3E:FC:43;105;41;-81
eduroam;W006;102;20:A6:CD:3F:01:A0;106;70;-61
campus;W006;102;20:A6:CD:3F:01:A1;107;68;-62
@BayernWLAN;W006;102;20:A6:CD:3F:01:A2;108;70;-61
public;W006;102;20:A6:CD:3F:01:A3;109;70;-61
Kein Internet;W006;102;6E:C7:EC:FF:D0:ED;111;90;-47
;W006;102;00:15:0C:03:A8:31;112;100;-23
;W006;102;00:1F:3F:15:D4:E4;101;20;-46
eduroam;W006;102;20:A6:CD:3E:FC:40;102;36;-44
campus;W006;102;20:A6:CD:3E:FC:41;103;36;-44
@BayernWLAN;W006;102;20:A6:CD:3E:FC:42;104;48;-44
public;W006;102;20:A6:CD:3E:FC:43;105;72;-39
eduroam;W006;102;20:A6:CD:3F:01:A0;106;66;-76
campus;W006;102;20:A6:CD:3F:01:A1;107;66;-76
@BayernWLAN;W006;102;20:A6:CD:3F:01:A2;108;66;-76
public;W006;102;20:A6:CD:3F:01:A3;109;58;-74
Kein Internet;W006;102;6E:C7:EC:FF:D0:ED;111;100;-93
campus;W-Gang-Unten;103;20:A6:CD:3E:FC:41;103;42;-80
public;W-Gang-Unten;103;20:A6:CD:3E:FC:43;105;42;-80
eduroam;W-Gang-Unten;103;20:A6:CD:3F:01:A0;106;72;-59
campus;W-Gang-Unten;103;20:A6:CD:3F:01:A1;107;72;-59
@BayernWLAN;W-Gang-Unten;103;20:A6:CD:3F:01:A2;108;72;-59
public;W-Gang-Unten;103;20:A6:CD:3F:01:A3;109;71;-60
Kein Internet;W-Gang-Unten;103;6E:C7:EC:FF:D0:ED;111;100;-35
eduroam;W-Gang-Unten;103;20:A6:CD:3E:FC:40;102;20;-50
campus;W-Gang-Unten;103;20:A6:CD:3E:FC:41;103;36;-56
@BayernWLAN;W-Gang-Unten;103;20:A6:CD:3E:FC:42;104;36;-56
public;W-Gang-Unten;103;20:A6:CD:3E:FC:43;105;36;-51
eduroam;W-Gang-Unten;103;20:A6:CD:3F:01:A0;106;20;-72
campus;W-Gang-Unten;103;20:A6:CD:3F:01:A1;107;36;-72
@BayernWLAN;W-Gang-Unten;103;20:A6:CD:3F:01:A2;108;20;-72
public;W-Gang-Unten;103;20:A6:CD:3F:01:A3;109;20;-72
Kein Internet;W-Gang-Unten;103;6E:C7:EC:FF:D0:ED;111;100;-99
eduroam;W-Gang-Unten;103;20:A6:CD:3E:FC:40;102;45;-78
campus;W-Gang-Unten;103;20:A6:CD:3E:FC:41;103;44;-79
@BayernWLAN;W-Gang-Unten;103;20:A6:CD:3E:FC:42;104;42;-80
public;W-Gang-Unten;103;20:A6:CD:3E:FC:43;105;41;-81
eduroam;W-Gang-Unten;103;20:A6:CD:3F:01:A0;106;74;-58
campus;W-Gang-Unten;103;20:A6:CD:3F:01:A1;107;74;-58
@BayernWLAN;W-Gang-Unten;103;20:A6:CD:3F:01:A2;108;75;-57
public;W-Gang-Unten;103;20:A6:CD:3F:01:A3;109;74;-58
Kein Internet;W-Gang-Unten;103;6E:C7:EC:FF:D0:ED;111;70;-61
eduroam;W-Gang-Unten;103;20:A6:CD:3E:FC:40;102;20;-50
campus;W-Gang-Unten;103;20:A6:CD:3E:FC:41;103;36;-56
@BayernWLAN;W-Gang-Unten;103;20:A6:CD:3E:FC:42;104;36;-56
public;W-Gang-Unten;103;20:A6:CD:3E:FC:43;105;36;-51
eduroam;W-Gang-Unten;103;20:A6:CD:3F:01:A0;106;58;-72
campus;W-Gang-Unten;103;20:A6:CD:3F:01:A1;107;45;-72
@BayernWLAN;W-Gang-Unten;103;20:A6:CD:3F:01:A2;108;48;-72
public;W-Gang-Unten;103;20:A6:CD:3F:01:A3;109;58;-72
Kein Internet;W-Gang-Unten;103;6E:C7:EC:FF:D0:ED;111;100;-94
eduroam;W-Gang-Unten;103;20:A6:CD:3E:FC:40;102;45;-78
campus;W-Gang-Unten;103;20:A6:CD:3E:FC:41;103;35;-85
@BayernWLAN;W-Gang-Unten;103;20:A6:CD:3E:FC:42;104;30;-89
public;W-Gang-Unten;103;20:A6:CD:3E:FC:43;105;38;-83
eduroam;W-Gang-Unten;103;20:A6:CD:3F:01:A0;106;85;-50
campus;W-Gang-Unten;103;20:A6:CD:3F:01:A1;107;82;-52
@BayernWLAN;W-Gang-Unten;103;20:A6:CD:3F:01:A2;108;87;-49
public;W-Gang-Unten;103;20:A6:CD:3F:01:A3;109;82;-52
Kein Internet;W-Gang-Unten;103;6E:C7:EC:FF:D0:ED;111;74;-58
;W-Gang-Unten;103;00:15:0C:03:A8:31;112;63;-10
eduroam;W-Gang-Unten;103;20:A6:CD:3E:FC:40;102;84;-47
campus;W-Gang-Unten;103;20:A6:CD:3E:FC:41;103;100;-45
@BayernWLAN;W-Gang-Unten;103;20:A6:CD:3E:FC:42;104;100;-44
public;W-Gang-Unten;103;20:A6:CD:3E:FC:43;105;100;-44
eduroam;W-Gang-Unten;103;20:A6:CD:3F:01:A0;106;66;-74
campus;W-Gang-Unten;103;20:A6:CD:3F:01:A1;107;56;-74
@BayernWLAN;W-Gang-Unten;103;20:A6:CD:3F:01:A2;108;66;-76
public;W-Gang-Unten;103;20:A6:CD:3F:01:A3;109;72;-76
Kein Internet;W-Gang-Unten;103;6E:C7:EC:FF:D0:ED;111;100;-85
eduroam;W-Gang-Unten;103;20:A6:CD:3E:FC:40;102;52;-73
campus;W-Gang-Unten;103;20:A6:CD:3E:FC:41;103;52;-73
@BayernWLAN;W-Gang-Unten;103;20:A6:CD:3E:FC:42;104;52;-73
public;W-Gang-Unten;103;20:A6:CD:3E:FC:43;105;54;-72
eduroam;W-Gang-Unten;103;20:A6:CD:3F:01:A0;106;61;-67
campus;W-Gang-Unten;103;20:A6:CD:3F:01:A1;107;60;-68
@BayernWLAN;W-Gang-Unten;103;20:A6:CD:3F:01:A2;108;61;-67
public;W-Gang-Unten;103;20:A6:CD:3F:01:A3;109;60;-68
Kein Internet;W-Gang-Unten;103;6E:C7:EC:FF:D0:ED;111;100;-38
;W-Gang-Unten;103;00:15:0C:03:A8:31;112;63;-10
;W-Gang-Unten;103;00:1F:3F:15:D4:E4;101;100;-47
eduroam;W-Gang-Unten;103;20:A6:CD:3E:FC:40;102;84;-47
campus;W-Gang-Unten;103;20:A6:CD:3E:FC:41;103;100;-45
@BayernWLAN;W-Gang-Unten;103;20:A6:CD:3E:FC:42;104;100;-44
public;W-Gang-Unten;103;20:A6:CD:3E:FC:43;105;100;-44
eduroam;W-Gang-Unten;103;20:A6:CD:3F:01:A0;106;81;-68
campus;W-Gang-Unten;103;20:A6:CD:3F:01:A1;107;76;-69
@BayernWLAN;W-Gang-Unten;103;20:A6:CD:3F:01:A2;108;81;-69
public;W-Gang-Unten;103;20:A6:CD:3F:01:A3;109;84;-71
TT03195-34;W-Gang-Unten;103;34:C9:F0:83:4F:5F;110;93;-10
Kein Internet;W-Gang-Unten;103;6E:C7:EC:FF:D0:ED;111;100;-100
campus;W-Gang-Unten;103;20:A6:CD:3E:F6:E1;114;35;-85
public;W-Gang-Unten;103;20:A6:CD:3E:F6:E3;113;32;-87
eduroam;W-Gang-Unten;103;20:A6:CD:3E:FC:40;102;51;-74
campus;W-Gang-Unten;103;20:A6:CD:3E:FC:41;103;50;-75
@BayernWLAN;W-Gang-Unten;103;20:A6:CD:3E:FC:42;104;50;-75
public;W-Gang-Unten;103;20:A6:CD:3E:FC:43;105;50;-75
eduroam;W-Gang-Unten;103;20:A6:CD:3F:01:A0;106;51;-74
campus;W-Gang-Unten;103;20:A6:CD:3F:01:A1;107;45;-78
@BayernWLAN;W-Gang-Unten;103;20:A6:CD:3F:01:A2;108;50;-75
public;W-Gang-Unten;103;20:A6:CD:3F:01:A3;109;44;-79
Kein Internet;W-Gang-Unten;103;6E:C7:EC:FF:D0:ED;111;97;-42
;W-Gang-Unten;103;00:1F:3F:15:D4:E4;101;100;-47
@BayernWLAN;W-Gang-Unten;103;20:A6:CD:3E:F6:E2;115;100;-56
eduroam;W-Gang-Unten;103;20:A6:CD:3E:FC:40;102;88;-54
campus;W-Gang-Unten;103;20:A6:CD:3E:FC:41;103;48;-61
@BayernWLAN;W-Gang-Unten;103;20:A6:CD:3E:FC:42;104;100;-52
public;W-Gang-Unten;103;20:A6:CD:3E:FC:43;105;100;-52
eduroam;W-Gang-Unten;103;20:A6:CD:3F:01:A0;106;84;-66
campus;W-Gang-Unten;103;20:A6:CD:3F:01:A1;107;80;-66
@BayernWLAN;W-Gang-Unten;103;20:A6:CD:3F:01:A2;108;81;-69
public;W-Gang-Unten;103;20:A6:CD:3F:01:A3;109;87;-68
TT03195-34;W-Gang-Unten;103;34:C9:F0:83:4F:5F;110;93;-10
Kein Internet;W-Gang-Unten;103;6E:C7:EC:FF:D0:ED;111;100;-94
eduroam;W-Gang-Unten;103;20:A6:CD:3E:F6:E0;116;44;-79
campus;W-Gang-Unten;103;20:A6:CD:3E:F6:E1;113;35;-85
public;W-Gang-Unten;103;20:A6:CD:3E:F6:E3;114;42;-80
eduroam;W-Gang-Unten;103;20:A6:CD:3E:FC:40;102;44;-79
campus;W-Gang-Unten;103;20:A6:CD:3E:FC:41;103;44;-79
@BayernWLAN;W-Gang-Unten;103;20:A6:CD:3E:FC:42;104;47;-77
public;W-Gang-Unten;103;20:A6:CD:3E:FC:43;105;44;-79
eduroam;W-Gang-Unten;103;20:A6:CD:3F:01:A0;106;51;-74
campus;W-Gang-Unten;103;20:A6:CD:3F:01:A1;107;45;-78
@BayernWLAN;W-Gang-Unten;103;20:A6:CD:3F:01:A2;108;50;-75
public;W-Gang-Unten;103;20:A6:CD:3F:01:A3;109;38;-83
Kein Internet;W-Gang-Unten;103;6E:C7:EC:FF:D0:ED;111;80;-54
eduroam;W-Gang-Unten;103;20:A6:CD:3E:F6:E0;116;75;-48
campus;W-Gang-Unten;103;20:A6:CD:3E:F6:E1;113;100;-48
@BayernWLAN;W-Gang-Unten;103;20:A6:CD:3E:F6:E2;115;100;-48
public;W-Gang-Unten;103;20:A6:CD:3E:F6:E3;114;0;-56
eduroam;W-Gang-Unten;103;20:A6:CD:3E:FC:40;102;93;-50
campus;W-Gang-Unten;103;20:A6:CD:3E:FC:41;103;66;-57
@BayernWLAN;W-Gang-Unten;103;20:A6:CD:3E:FC:42;104;100;-51
public;W-Gang-Unten;103;20:A6:CD:3E:FC:43;105;100;-48
eduroam;W-Gang-Unten;103;20:A6:CD:3F:01:A0;106;88;-43
campus;W-Gang-Unten;103;20:A6:CD:3F:01:A1;107;86;-44
@BayernWLAN;W-Gang-Unten;103;20:A6:CD:3F:01:A2;108;95;-43
public;W-Gang-Unten;103;20:A6:CD:3F:01:A3;109;63;-44
Kein Internet;W-Gang-Unten;103;6E:C7:EC:FF:D0:ED;111;98;-76
eduroam;W-Gang-Unten;103;20:A6:CD:3E:F6:E0;116;44;-79
campus;W-Gang-Unten;103;20:A6:CD:3E:F6:E1;113;31;-88
public;W-Gang-Unten;103;20:A6:CD:3E:F6:E3;114;35;-85
eduroam;W-Gang-Unten;103;20:A6:CD:3E:FC:40;102;68;-62
campus;W-Gang-Unten;103;20:A6:CD:3E:FC:41;103;67;-63
@BayernWLAN;W-Gang-Unten;103;20:A6:CD:3E:FC:42;104;67;-63
public;W-Gang-Unten;103;20:A6:CD:3E:FC:43;105;68;-62
eduroam;W-Gang-Unten;103;20:A6:CD:3F:01:A0;106;45;-78
campus;W-Gang-Unten;103;20:A6:CD:3F:01:A1;107;47;-77
@BayernWLAN;W-Gang-Unten;103;20:A6:CD:3F:01:A2;108;44;-79
public;W-Gang-Unten;103;20:A6:CD:3F:01:A3;109;45;-78
Kein Internet;W-Gang-Unten;103;6E:C7:EC:FF:D0:ED;111;87;-49
eduroam;W-Gang-Unten;103;20:A6:CD:3E:F6:E0;116;75;-48
campus;W-Gang-Unten;103;20:A6:CD:3E:F6:E1;113;100;-48
@BayernWLAN;W-Gang-Unten;103;20:A6:CD:3E:F6:E2;115;100;-48
public;W-Gang-Unten;103;20:A6:CD:3E:F6:E3;114;0;-56
eduroam;W-Gang-Unten;103;20:A6:CD:3E:FC:40;102;94;-55
campus;W-Gang-Unten;103;20:A6:CD:3E:FC:41;103;72;-62
@BayernWLAN;W-Gang-Unten;103;20:A6:CD:3E:FC:42;104;100;-51
public;W-Gang-Unten;103;20:A6:CD:3E:FC:43;105;100;-48
eduroam;W-Gang-Unten;103;20:A6:CD:3F:01:A0;106;90;-43
campus;W-Gang-Unten;103;20:A6:CD:3F:01:A1;107;86;-44
@BayernWLAN;W-Gang-Unten;103;20:A6:CD:3F:01:A2;108;96;-43
public;W-Gang-Unten;103;20:A6:CD:3F:01:A3;109;63;-44
Kein Internet;W-Gang-Unten;103;6E:C7:EC:FF:D0:ED;111;96;-97
campus;W004;104;20:A6:CD:3E:F6:E1;113;31;-88
public;W004;104;20:A6:CD:3E:F6:E3;114;35;-85
eduroam;W004;104;20:A6:CD:3E:FC:40;102;54;-72
campus;W004;104;20:A6:CD:3E:FC:41;103;54;-72
@BayernWLAN;W004;104;20:A6:CD:3E:FC:42;104;52;-73
public;W004;104;20:A6:CD:3E:FC:43;105;55;-71
eduroam;W004;104;20:A6:CD:3F:01:A0;106;57;-70
campus;W004;104;20:A6:CD:3F:01:A1;107;58;-69
@BayernWLAN;W004;104;20:A6:CD:3F:01:A2;108;57;-70
public;W004;104;20:A6:CD:3F:01:A3;109;57;-70
Kein Internet;W004;104;6E:C7:EC:FF:D0:ED;111;92;-45
;W004;104;00:1F:3F:15:D4:E4;101;20;-44
eduroam;W004;104;20:A6:CD:3E:FC:40;102;0;-47
campus;W004;104;20:A6:CD:3E:FC:41;103;0;-47
@BayernWLAN;W004;104;20:A6:CD:3E:FC:42;104;100;-56
public;W004;104;20:A6:CD:3E:FC:43;105;34;-50
eduroam;W004;104;20:A6:CD:3F:01:A0;106;36;-60
campus;W004;104;20:A6:CD:3F:01:A1;107;36;-58
@BayernWLAN;W004;104;20:A6:CD:3F:01:A2;108;20;-58
public;W004;104;20:A6:CD:3F:01:A3;109;48;-58
Kein Internet;W004;104;6E:C7:EC:FF:D0:ED;111;100;-97
eduroam;W004;104;20:A6:CD:3E:FC:40;102;38;-83
campus;W004;104;20:A6:CD:3E:FC:41;103;35;-85
@BayernWLAN;W004;104;20:A6:CD:3E:FC:42;104;37;-84
public;W004;104;20:A6:CD:3E:FC:43;105;37;-84
eduroam;W004;104;20:A6:CD:3F:01:A0;106;61;-67
campus;W004;104;20:A6:CD:3F:01:A1;107;62;-66
@BayernWLAN;W004;104;20:A6:CD:3F:01:A2;108;62;-66
public;W004;104;20:A6:CD:3F:01:A3;109;57;-70
Kein Internet;W004;104;6E:C7:EC:FF:D0:ED;111;91;-46
;W004;104;00:1F:3F:15:D4:E4;101;20;-44
eduroam;W004;104;20:A6:CD:3E:FC:40;102;36;-48
campus;W004;104;20:A6:CD:3E:FC:41;103;36;-48
@BayernWLAN;W004;104;20:A6:CD:3E:FC:42;104;100;-51
public;W004;104;20:A6:CD:3E:FC:43;105;47;-51
eduroam;W004;104;20:A6:CD:3F:01:A0;106;48;-59
campus;W004;104;20:A6:CD:3F:01:A1;107;48;-58
@BayernWLAN;W004;104;20:A6:CD:3F:01:A2;108;36;-58
public;W004;104;20:A6:CD:3F:01:A3;109;58;-58
Kein Internet;W004;104;6E:C7:EC:FF:D0:ED;111;100;-94
eduroam;W004;104;20:A6:CD:3E:FC:40;102;47;-77
campus;W004;104;20:A6:CD:3E:FC:41;103;48;-76
@BayernWLAN;W004;104;20:A6:CD:3E:FC:42;104;47;-77
public;W004;104;20:A6:CD:3E:FC:43;105;47;-77
eduroam;W004;104;20:A6:CD:3F:01:A0;106;70;-61
campus;W004;104;20:A6:CD:3F:01:A1;107;67;-63
@BayernWLAN;W004;104;20:A6:CD:3F:01:A2;108;68;-62
public;W004;104;20:A6:CD:3F:01:A3;109;68;-62
Kein Internet;W004;104;6E:C7:EC:FF:D0:ED;111;84;-51
;W004;104;00:1F:3F:15:D4:E4;101;20;-44
eduroam;W004;104;20:A6:CD:3E:FC:40;102;36;-48
campus;W004;104;20:A6:CD:3E:FC:41;103;36;-48
@BayernWLAN;W004;104;20:A6:CD:3E:FC:42;104;100;-50
public;W004;104;20:A6:CD:3E:FC:43;105;47;-51
eduroam;W004;104;20:A6:CD:3F:01:A0;106;72;-60
campus;W004;104;20:A6:CD:3F:01:A1;107;70;-60
@BayernWLAN;W004;104;20:A6:CD:3F:01:A2;108;66;-60
public;W004;104;20:A6:CD:3F:01:A3;109;77;-60
Kein Internet;W004;104;6E:C7:EC:FF:D0:ED;111;100;-91
eduroam;W004;104;20:A6:CD:3E:FC:40;102;45;-78
campus;W004;104;20:A6:CD:3E:FC:41;103;47;-77
@BayernWLAN;W004;104;20:A6:CD:3E:FC:42;104;48;-76
public;W004;104;20:A6:CD:3E:FC:43;105;45;-78
eduroam;W004;104;20:A6:CD:3F:01:A0;106;58;-69
campus;W004;104;20:A6:CD:3F:01:A1;107;61;-67
@BayernWLAN;W004;104;20:A6:CD:3F:01:A2;108;60;-68
public;W004;104;20:A6:CD:3F:01:A3;109;60;-68
Kein Internet;W004;104;6E:C7:EC:FF:D0:ED;111;75;-57
;W004;104;00:1F:3F:15:D4:E4;101;0;-46
eduroam;W004;104;20:A6:CD:3E:FC:40;102;100;-58
campus;W004;104;20:A6:CD:3E:FC:41;103;0;-43
public;W004;104;20:A6:CD:3E:FC:43;105;100;-58
eduroam;W004;104;20:A6:CD:3F:01:A0;106;48;-64
campus;W004;104;20:A6:CD:3F:01:A1;107;42;-64
@BayernWLAN;W004;104;20:A6:CD:3F:01:A2;108;42;-64
public;W004;104;20:A6:CD:3F:01:A3;109;47;-63
Kein Internet;W004;104;6E:C7:EC:FF:D0:ED;111;100;-75
eduroam;W004;104;20:A6:CD:3E:FC:40;102;47;-77
campus;W004;104;20:A6:CD:3E:FC:41;103;40;-82
@BayernWLAN;W004;104;20:A6:CD:3E:FC:42;104;45;-78
public;W004;104;20:A6:CD:3E:FC:43;105;37;-84
eduroam;W004;104;20:A6:CD:3F:01:A0;106;57;-70
campus;W004;104;20:A6:CD:3F:01:A1;107;58;-69
@BayernWLAN;W004;104;20:A6:CD:3F:01:A2;108;54;-72
public;W004;104;20:A6:CD:3F:01:A3;109;54;-72
Kein Internet;W004;104;6E:C7:EC:FF:D0:ED;111;95;-43
;W004;104;00:1F:3F:15:D4:E4;101;100;-46
public;W004;104;20:A6:CD:3E:FC:43;105;0;-46
eduroam;W004;104;20:A6:CD:3F:01:A0;106;100;-68
campus;W004;104;20:A6:CD:3F:01:A1;107;100;-68
@BayernWLAN;W004;104;20:A6:CD:3F:01:A2;108;100;-68
public;W004;104;20:A6:CD:3F:01:A3;109;100;-68
Kein Internet;W004;104;6E:C7:EC:FF:D0:ED;111;100;-96
Kein Internet;B110;105;6E:C7:EC:FF:D0:ED;111;100;-35
eduroam;B110;105;A8:BD:27:41:BB:E0;120;64;-65
campus;B110;105;A8:BD:27:41:BB:E1;118;62;-66
@BayernWLAN;B110;105;A8:BD:27:41:BB:E2;126;61;-67
public;B110;105;A8:BD:27:41:BB:E3;119;58;-69
eduroam;B110;105;A8:BD:27:41:F0:60;125;47;-77
campus;B110;105;A8:BD:27:41:F0:61;127;48;-76
@BayernWLAN;B110;105;A8:BD:27:41:F0:62;128;42;-80
public;B110;105;A8:BD:27:41:F0:63;117;47;-77
@BayernWLAN;B110;105;A8:BD:27:44:83:E2;129;22;-94
eduroam;B110;105;A8:BD:27:44:A4:40;121;91;-46
campus;B110;105;A8:BD:27:44:A4:41;122;88;-48
@BayernWLAN;B110;105;A8:BD:27:44:A4:42;123;92;-45
public;B110;105;A8:BD:27:44:A4:43;124;92;-45
Kein Internet;B110;105;6E:C7:EC:FF:D0:ED;111;100;-100
campus;B110;105;A8:BD:27:41:BB:81;130;100;-47
@BayernWLAN;B110;105;A8:BD:27:41:BB:82;131;100;-46
eduroam;B110;105;A8:BD:27:41:BB:E0;120;0;-62
campus;B110;105;A8:BD:27:41:BB:E1;118;48;-70
@BayernWLAN;B110;105;A8:BD:27:41:BB:E2;126;20;-65
public;B110;105;A8:BD:27:41:BB:E3;119;20;-65
eduroam;B110;105;A8:BD:27:41:BD:C0;132;0;-26
@BayernWLAN;B110;105;A8:BD:27:41:BD:C2;133;0;-26
campus;B110;105;A8:BD:27:41:F0:61;127;100;-60
@BayernWLAN;B110;105;A8:BD:27:41:F0:62;128;93;-47
public;B110;105;A8:BD:27:41:F0:63;117;100;-58
@BayernWLAN;B110;105;A8:BD:27:44:83:E2;129;77;-23
eduroam;B110;105;A8:BD:27:44:A4:40;121;48;-84
campus;B110;105;A8:BD:27:44:A4:41;122;36;-86
@BayernWLAN;B110;105;A8:BD:27:44:A4:42;123;32;-22
public;B110;105;A8:BD:27:44:A4:43;124;36;-80
Kein Internet;B110;105;6E:C7:EC:FF:D0:ED;111;100;-35
eduroam;B110;105;A8:BD:27:41:BB:80;134;37;-84
campus;B110;105;A8:BD:27:41:BB:81;130;37;-84
@BayernWLAN;B110;105;A8:BD:27:41:BB:82;131;35;-85
eduroam;B110;105;A8:BD:27:41:BB:E0;117;65;-64
campus;B110;105;A8:BD:27:41:BB:E1;118;62;-66
@BayernWLAN;B110;105;A8:BD:27:41:BB:E2;119;64;-65
public;B110;105;A8:BD:27:41:BB:E3;120;65;-64
eduroam;B110;105;A8:BD:27:41:F0:60;121;48;-76
campus;B110;105;A8:BD:27:41:F0:61;122;45;-78
@BayernWLAN;B110;105;A8:BD:27:41:F0:62;123;44;-79
public;B110;105;A8:BD:27:41:F0:63;124;45;-78
eduroam;B110;105;A8:BD:27:44:83:E0;135;25;-92
@BayernWLAN;B110;105;A8:BD:27:44:83:E2;125;22;-94
eduroam;B110;105;A8:BD:27:44:A4:40;126;91;-46
campus;B110;105;A8:BD:27:44:A4:41;127;88;-48
@BayernWLAN;B110;105;A8:BD:27:44:A4:42;128;91;-46
public;B110;105;A8:BD:27:44:A4:43;129;91;-46
Kein Internet;B110;105;6E:C7:EC:FF:D0:ED;111;100;-100
eduroam;B110;105;A8:BD:27:41:BB:80;134;92;-46
campus;B110;105;A8:BD:27:41:BB:81;130;97;-46
@BayernWLAN;B110;105;A8:BD:27:41:BB:82;131;100;-45
eduroam;B110;105;A8:BD:27:41:BB:E0;117;18;-58
campus;B110;105;A8:BD:27:41:BB:E1;118;66;-70
@BayernWLAN;B110;105;A8:BD:27:41:BB:E2;119;36;-66
public;B110;105;A8:BD:27:41:BB:E3;120;48;-66
eduroam;B110;105;A8:BD:27:41:BD:C0;132;0;-26
@BayernWLAN;B110;105;A8:BD:27:41:BD:C2;133;0;-26
public;B110;105;A8:BD:27:41:BD:C3;136;90;-23
campus;B110;105;A8:BD:27:41:F0:61;122;100;-59
@BayernWLAN;B110;105;A8:BD:27:41:F0:62;123;77;-50
public;B110;105;A8:BD:27:41:F0:63;124;80;-58
eduroam;B110;105;A8:BD:27:44:83:E0;135;65;-7
@BayernWLAN;B110;105;A8:BD:27:44:83:E2;125;77;-23
eduroam;B110;105;A8:BD:27:44:A4:40;126;54;-76
campus;B110;105;A8:BD:27:44:A4:41;127;58;-88
@BayernWLAN;B110;105;A8:BD:27:44:A4:42;128;28;-38
public;B110;105;A8:BD:27:44:A4:43;129;58;-84
Kein Internet;B110;105;6E:C7:EC:FF:D0:ED;111;100;-35
eduroam;B110;105;A8:BD:27:41:BB:80;134;37;-84
campus;B110;105;A8:BD:27:41:BB:81;130;37;-84
@BayernWLAN;B110;105;A8:BD:27:41:BB:82;131;35;-85
eduroam;B110;105;A8:BD:27:41:BB:E0;117;61;-67
campus;B110;105;A8:BD:27:41:BB:E1;118;57;-70
@BayernWLAN;B110;105;A8:BD:27:41:BB:E2;119;62;-66
public;B110;105;A8:BD:27:41:BB:E3;120;62;-66
eduroam;B110;105;A8:BD:27:41:F0:60;121;42;-80
campus;B110;105;A8:BD:27:41:F0:61;122;45;-78
@BayernWLAN;B110;105;A8:BD:27:41:F0:62;123;42;-80
public;B110;105;A8:BD:27:41:F0:63;124;41;-81
eduroam;B110;105;A8:BD:27:44:83:E0;135;30;-89
@BayernWLAN;B110;105;A8:BD:27:44:83:E2;125;28;-90
eduroam;B110;105;A8:BD:27:44:A4:40;126;92;-45
campus;B110;105;A8:BD:27:44:A4:41;127;87;-49
@BayernWLAN;B110;105;A8:BD:27:44:A4:42;128;91;-46
public;B110;105;A8:BD:27:44:A4:43;129;91;-46
Kein Internet;B110;105;6E:C7:EC:FF:D0:ED;111;100;-100
eduroam;B110;105;A8:BD:27:41:BB:80;134;93;-46
campus;B110;105;A8:BD:27:41:BB:81;130;91;-45
@BayernWLAN;B110;105;A8:BD:27:41:BB:82;131;90;-44
eduroam;B110;105;A8:BD:27:41:BB:E0;117;34;-60
campus;B110;105;A8:BD:27:41:BB:E1;118;66;-70
@BayernWLAN;B110;105;A8:BD:27:41:BB:E2;119;58;-68
public;B110;105;A8:BD:27:41:BB:E3;120;58;-67
@BayernWLAN;B110;105;A8:BD:27:41:BD:C2;133;0;-26
public;B110;105;A8:BD:27:41:BD:C3;136;90;-23
eduroam;B110;105;A8:BD:27:41:F0:60;121;100;-58
campus;B110;105;A8:BD:27:41:F0:61;122;100;-59
@BayernWLAN;B110;105;A8:BD:27:41:F0:62;123;74;-51
public;B110;105;A8:BD:27:41:F0:63;124;84;-58
eduroam;B110;105;A8:BD:27:44:83:E0;135;65;-7
@BayernWLAN;B110;105;A8:BD:27:44:83:E2;125;79;-26
eduroam;B110;105;A8:BD:27:44:A4:40;126;63;-79
campus;B110;105;A8:BD:27:44:A4:41;127;77;-85
@BayernWLAN;B110;105;A8:BD:27:44:A4:42;128;53;-54
public;B110;105;A8:BD:27:44:A4:43;129;72;-85
Kein Internet;B110;105;6E:C7:EC:FF:D0:ED;111;100;-34
campus;B110;105;A8:BD:27:41:BB:81;130;32;-87
@BayernWLAN;B110;105;A8:BD:27:41:BB:82;131;30;-89
eduroam;B110;105;A8:BD:27:41:BB:E0;117;58;-69
campus;B110;105;A8:BD:27:41:BB:E1;118;57;-70
@BayernWLAN;B110;105;A8:BD:27:41:BB:E2;119;52;-73
public;B110;105;A8:BD:27:41:BB:E3;120;58;-69
eduroam;B110;105;A8:BD:27:41:F0:60;121;45;-78
campus;B110;105;A8:BD:27:41:F0:61;122;48;-76
@BayernWLAN;B110;105;A8:BD:27:41:F0:62;123;47;-77
public;B110;105;A8:BD:27:41:F0:63;124;47;-77
public;B110;105;A8:BD:27:44:A4:03;137;32;-87
eduroam;B110;105;A8:BD:27:44:A4:40;126;80;-54
campus;B110;105;A8:BD:27:44:A4:41;127;78;-55
@BayernWLAN;B110;105;A8:BD:27:44:A4:42;128;78;-55
public;B110;105;A8:BD:27:44:A4:43;129;78;-55
Kein Internet;B110;105;6E:C7:EC:FF:D0:ED;111;100;-100
eduroam;B110;105;A8:BD:27:41:BB:80;134;100;-48
campus;B110;105;A8:BD:27:41:BB:81;130;100;-56
@BayernWLAN;B110;105;A8:BD:27:41:BB:82;131;97;-48
eduroam;B110;105;A8:BD:27:41:BB:E0;117;30;-50
campus;B110;105;A8:BD:27:41:BB:E1;118;100;-58
public;B110;105;A8:BD:27:41:BB:E3;120;100;-58
@BayernWLAN;B110;105;A8:BD:27:44:83:E2;125;56;-43
public;B110;105;A8:BD:27:44:83:E3;138;100;-43
eduroam;B110;105;A8:BD:27:44:A4:00;139;100;-26
campus;B110;105;A8:BD:27:44:A4:01;140;90;-26
@BayernWLAN;B110;105;A8:BD:27:44:A4:02;141;86;-26
eduroam;B110;105;A8:BD:27:44:A4:40;126;20;-84
campus;B110;105;A8:BD:27:44:A4:41;127;36;-68
@BayernWLAN;B110;105;A8:BD:27:44:A4:42;128;36;-86
public;B110;105;A8:BD:27:44:A4:43;129;20;-84
Kein Internet;B110;105;6E:C7:EC:FF:D0:ED;111;100;-34
eduroam;B110;105;A8:BD:27:41:BB:E0;117;61;-67
campus;B110;105;A8:BD:27:41:BB:E1;118;55;-71
@BayernWLAN;B110;105;A8:BD:27:41:BB:E2;119;55;-71
public;B110;105;A8:BD:27:41:BB:E3;120;55;-71
eduroam;B110;105;A8:BD:27:41:F0:60;121;37;-84
campus;B110;105;A8:BD:27:41:F0:61;122;40;-82
@BayernWLAN;B110;105;A8:BD:27:41:F0:62;123;42;-80
public;B110;105;A8:BD:27:44:A4:03;137;30;-89
eduroam;B110;105;A8:BD:27:44:A4:40;126;78;-55
campus;B110;105;A8:BD:27:44:A4:41;127;77;-56
@BayernWLAN;B110;105;A8:BD:27:44:A4:42;128;80;-54
public;B110;105;A8:BD:27:44:A4:43;129;78;-55
Kein Internet;B110;105;6E:C7:EC:FF:D0:ED;111;100;-100
eduroam;B110;105;A8:BD:27:41:BB:80;134;0;-56
@BayernWLAN;B110;105;A8:BD:27:41:BB:82;131;61;-58
public;B110;105;A8:BD:27:41:BB:83;142;100;-56
campus;B110;105;A8:BD:27:41:BB:E1;118;20;-49
@BayernWLAN;B110;105;A8:BD:27:41:BB:E2;119;36;-51
public;B110;105;A8:BD:27:41:BB:E3;120;36;-50
campus;B110;105;A8:BD:27:41:BD:C1;143;6;-7
eduroam;B110;105;A8:BD:27:41:F0:60;121;100;-48
campus;B110;105;A8:BD:27:41:F0:61;122;100;-48
@BayernWLAN;B110;105;A8:BD:27:44:83:E2;125;68;-43
public;B110;105;A8:BD:27:44:83:E3;138;54;-43
campus;B110;105;A8:BD:27:44:A4:01;140;84;-23
eduroam;B110;105;A8:BD:27:44:A4:40;126;20;-89
campus;B110;105;A8:BD:27:44:A4:41;127;20;-89
@BayernWLAN;B110;105;A8:BD:27:44:A4:42;128;36;-89
public;B110;105;A8:BD:27:44:A4:43;129;40;-82
Kein Internet;B110;105;6E:C7:EC:FF:D0:ED;111;100;-33
eduroam;B110;105;A8:BD:27:41:BB:80;134;32;-87
@BayernWLAN;B110;105;A8:BD:27:41:BB:82;131;34;-86
public;B110;105;A8:BD:27:41:BB:83;142;32;-87
eduroam;B110;105;A8:BD:27:41:BB:E0;117;64;-65
campus;B110;105;A8:BD:27:41:BB:E1;118;60;-68
@BayernWLAN;B110;105;A8:BD:27:41:BB:E2;119;57;-70
public;B110;105;A8:BD:27:41:BB:E3;120;60;-68
eduroam;B110;105;A8:BD:27:41:BD:C0;132;25;-92
@BayernWLAN;B110;105;A8:BD:27:41:BD:C2;133;24;-93
eduroam;B110;105;A8:BD:27:41:F0:60;121;38;-83
campus;B110;105;A8:BD:27:41:F0:61;122;37;-84
@BayernWLAN;B110;105;A8:BD:27:41:F0:62;123;38;-83
public;B110;105;A8:BD:27:41:F0:63;124;38;-83
public;B110;105;A8:BD:27:44:A4:03;137;30;-89
eduroam;B110;105;A8:BD:27:44:A4:40;126;78;-55
campus;B110;105;A8:BD:27:44:A4:41;127;78;-55
@BayernWLAN;B110;105;A8:BD:27:44:A4:42;128;80;-54
public;B110;105;A8:BD:27:44:A4:43;129;80;-54
Kein Internet;B110;105;6E:C7:EC:FF:D0:ED;111;100;-100
eduroam;B110;105;A8:BD:27:41:BB:80;134;100;-56
campus;B110;105;A8:BD:27:41:BB:81;130;100;-48
@BayernWLAN;B110;105;A8:BD:27:41:BB:82;131;100;-56
public;B110;105;A8:BD:27:41:BB:83;142;100;-56
eduroam;B110;105;A8:BD:27:41:BB:E0;117;0;-48
campus;B110;105;A8:BD:27:41:BB:E1;118;48;-52
@BayernWLAN;B110;105;A8:BD:27:41:BB:E2;119;36;-52
public;B110;105;A8:BD:27:41:BB:E3;120;47;-58
eduroam;B110;105;A8:BD:27:41:F0:60;121;100;-56
campus;B110;105;A8:BD:27:41:F0:61;122;86;-58
@BayernWLAN;B110;105;A8:BD:27:41:F0:62;123;100;-56
eduroam;B110;105;A8:BD:27:44:A4:00;139;0;-23
eduroam;B110;105;A8:BD:27:44:A4:40;126;48;-81
campus;B110;105;A8:BD:27:44:A4:41;127;48;-92
@BayernWLAN;B110;105;A8:BD:27:44:A4:42;128;48;-92
public;B110;105;A8:BD:27:44:A4:43;129;48;-92
Kein Internet;B110;105;6E:C7:EC:FF:D0:ED;111;100;-35
eduroam;B110;105;A8:BD:27:41:BB:80;134;32;-87
@BayernWLAN;B110;105;A8:BD:27:41:BB:82;131;34;-86
public;B110;105;A8:BD:27:41:BB:83;142;32;-87
eduroam;B110;105;A8:BD:27:41:BB:E0;117;58;-69
campus;B110;105;A8:BD:27:41:BB:E1;118;57;-70
@BayernWLAN;B110;105;A8:BD:27:41:BB:E2;119;58;-69
public;B110;105;A8:BD:27:41:BB:E3;120;58;-69
eduroam;B110;105;A8:BD:27:41:BD:C0;132;25;-92
@BayernWLAN;B110;105;A8:BD:27:41:BD:C2;133;24;-93
eduroam;B110;105;A8:BD:27:41:F0:60;121;38;-83
campus;B110;105;A8:BD:27:41:F0:61;122;32;-87
@BayernWLAN;B110;105;A8:BD:27:41:F0:62;123;38;-83
public;B110;105;A8:BD:27:41:F0:63;124;38;-83
eduroam;B110;105;A8:BD:27:44:A4:40;126;74;-58
campus;B110;105;A8:BD:27:44:A4:41;127;78;-55
@BayernWLAN;B110;105;A8:BD:27:44:A4:42;128;80;-54
public;B110;105;A8:BD:27:44:A4:43;129;80;-54
Kein Internet;B110;105;6E:C7:EC:FF:D0:ED;111;100;-100
eduroam;B110;105;A8:BD:27:41:BB:80;134;100;-54
campus;B110;105;A8:BD:27:41:BB:81;130;100;-48
@BayernWLAN;B110;105;A8:BD:27:41:BB:82;131;100;-56
public;B110;105;A8:BD:27:41:BB:83;142;100;-54
eduroam;B110;105;A8:BD:27:41:BB:E0;117;36;-52
campus;B110;105;A8:BD:27:41:BB:E1;118;66;-54
@BayernWLAN;B110;105;A8:BD:27:41:BB:E2;119;58;-54
public;B110;105;A8:BD:27:41:BB:E3;120;72;-58
eduroam;B110;105;A8:BD:27:41:F0:60;121;98;-54
campus;B110;105;A8:BD:27:41:F0:61;122;86;-58
@BayernWLAN;B110;105;A8:BD:27:41:F0:62;123;100;-56
eduroam;B110;105;A8:BD:27:44:83:E0;135;100;-44
eduroam;B110;105;A8:BD:27:44:A4:00;139;19;-23
campus;B110;105;A8:BD:27:44:A4:01;140;0;-10
@BayernWLAN;B110;105;A8:BD:27:44:A4:02;141;100;-23
public;B110;105;A8:BD:27:44:A4:03;137;77;-23
eduroam;B110;105;A8:BD:27:44:A4:40;126;66;-85
campus;B110;105;A8:BD:27:44:A4:41;127;66;-92
@BayernWLAN;B110;105;A8:BD:27:44:A4:42;128;58;-92
public;B110;105;A8:BD:27:44:A4:43;129;66;-92
